- EXELSI0R
+ 2SM1590
+ Paradox
- 1S86598
- Falcon
- Motion
- Buffle
+ Buffle
- 4E71525
+ Motion
- 4E71525
+ Début
+ Buffle
+ Epitome
- Quête
- Lumière
- Vindicator
- Falcon
- Epitome
+ Scout
+ 1S86598
- Chance
+ 1A10000
- Paradox
- Ranger
+ Chance
+ 3AH9783
- Scout
+ EXELSI0R
- 1S86599
- 1S86599
- Vindicator
+ Mystery
+ Quête
- 4AX0969
+ Motion
- Whim
- Whim
- 5AM0514
- Quête
+ Quête
- 1S86599
+ 4AX0983
+ Souhait
+ Souhait
+ Motion
- 4AX0969
+ Début
- Vindicator
- 4AX0983
+ Paradox
- Lumière
- 4AX0983
- Whim
+ Quête
- Ranger
+ 4E71525
+ Ranger
- Ranger
- 4AX0983
- Rencontre
- Rencontre
+ Incendie
- 4AX0969
- 5AM0514
+ Mystery
- 2SM1590
+ Lumière
- Début
+ Whim
+ Souhait
+ Epitome
- Falcon
- Wish
+ Scout
- 5AM0514
- Vindicator
+ Incendie
- 4E71525
+ Lumière
- EXELSI0R
+ Souhait
- Début
- Epitome
- Mystery
- 1S86599
+ Incendie
- 2SM1590
- Motion
+ Lumière
+ Lumière
- Epitome
- Vindicator
+ Chance
+ 5AM0514
- Buffle
+ Vindicator
+ 1S86599
- 4E71525
+ Chance
+ 2SM1590
+ Buffle
+ Falcon
+ Lumière
- 4AX0969
- Ranger
- 5AM0514
+ EXELSI0R
- Buffle
- Wish
+ 1S86599
- Quête
+ Début
+ Paradox
- Quête
+ Wish
- 2SM1590
+ Ranger
+ 4AX0983
+ 1S86598
+ Scout
- Mystery
- Paradox
+ Paradox
- EXELSI0R
+ 1A10000
+ Portrait
+ Vindicator
- Souhait
- Scout
- Chance
- 2SM1590
+ Epitome
+ Mystery
- Rencontre
+ Début
- 1S86599
- 4E71525
- Vindicator
+ Vindicator
- 3AH9783
+ 1S86599
- Motion
- Buffle
- 1A10000
- Quête
- Whim
- Buffle
- Epitome
- Vindicator
+ Whim
- 4E71525
- Scout
+ Motion
- Chance
+ Ranger
+ 4E71525
- 4AX0969
+ Buffle
+ Quête
+ 4AX0983
+ Portrait
+ Whim
- Epitome
- 4AX0983
+ 4E71525
- Vague
+ 1S86599
- Portrait
- Incendie
+ 2SM1590
- 1A10000
- Mystery
- Incendie
+ Ranger
- Lumière
- Incendie
+ Vindicator
- Incendie
- Chance
- Ranger
+ Paradox
- Whim
- Whim
+ Whim
- Scout
+ Buffle
+ Ranger
- Quête
- Epitome
+ Paradox
+ Buffle
+ Portrait
+ 5AM0514
- Paradox
+ Rencontre
- Début
+ 4AX0983
+ 2SM1590
- 4AX0969
+ Paradox
+ 3AH9783
- Rencontre
+ 4AX0983
- Souhait
- Epitome
+ Rencontre
- Lumière
- 5AM0514
+ Scout
+ Scout
- 3AH9783
- EXELSI0R
+ Scout
+ Quête
+ Rencontre
+ 1A10000
- 5AM0514
+ Whim
+ 1A10000
- Vague
- 1A10000
+ Epitome
+ Ranger
- 2SM1590
+ Quête
- Souhait
- Whim
+ 1S86598
- Vague
- 2SM1590
- Rencontre
- Vindicator
- Falcon
+ Lumière
- Vague
+ Motion
- Début
- Ranger
+ 2SM1590
+ Paradox
+ 1S86598
+ Vindicator
+ Lumière
- Chance
- 1S86598
+ Début
+ Buffle
- 4E71525
- Lumière
- 2SM1590
- Mystery
- Portrait
+ Falcon
+ Lumière
- Ranger
- 3AH9783
+ Chance
- Début
+ Souhait
- 5AM0514
- Rencontre
+ EXELSI0R
+ Epitome
- Vindicator
- 4AX0983
- 1S86598
- 3AH9783
- Lumière
- Vindicator
- Chance
+ Incendie
+ Mystery
- 3AH9783
- 4E71525
+ Vague
- 4E71525
+ Whim
- Epitome
- Mystery
- 3AH9783
- 4AX0983
- 2SM1590
- Wish
- Incendie
+ Mystery
- Souhait
- 4AX0983
- Whim
- 1S86599
- Chance
- 1A10000
- 4E71525
- Vindicator
+ EXELSI0R
- Paradox
+ Scout
+ Souhait
+ Buffle
- 1S86599
+ 1A10000
+ 5AM0514
- Paradox
- Epitome
- 2SM1590
- Souhait
+ 4E71525
- Scout
+ Lumière
+ Souhait
+ 5AM0514
- Motion
+ Portrait
+ Motion
- Wish
+ Portrait
+ 1A10000
- Quête
- Mystery
+ Début
- Mystery
+ Motion
+ 2SM1590
- Portrait
- 1S86598
- Paradox
- Chance
- 2SM1590
- 4AX0983
- Rencontre
+ 1S86599
- Début
- Buffle
- Vindicator
+ Wish
+ Epitome
- Wish
+ 4AX0983
- Motion
+ 3AH9783
+ Quête
+ Wish
+ Mystery
- 1S86598
+ Chance
- Début
- Wish
+ Chance
- 1S86599
+ 2SM1590
+ 1A10000
+ 1S86598
+ Rencontre
+ Epitome
+ Vague
+ Incendie
- Début
- EXELSI0R
- Paradox
+ Falcon
+ Début
- 2SM1590
- 4E71525
- Vindicator
+ 5AM0514
- 4AX0983
- 3AH9783
+ Portrait
- 4AX0969
- 1S86598
+ Whim
- 4AX0969
- Motion
+ Mystery
+ Scout
- 5AM0514
+ Mystery
+ 2SM1590
- 3AH9783
- 1S86598
- Portrait
+ Mystery
- 4AX0983
- Motion
+ 3AH9783
- 5AM0514
- Scout
- 1S86598
- Mystery
- Epitome
+ Vindicator
+ Whim
- Falcon
- Portrait
+ Falcon
- Paradox
+ Portrait
+ Vague
- Lumière
- 1A10000
- EXELSI0R
- Souhait
- Début
- Début
+ 5AM0514
- Ranger
+ Mystery
+ Portrait
- 1A10000
- 2SM1590
- Chance
- Début
+ Scout
+ Wish
+ EXELSI0R
- Chance
+ Chance
+ 5AM0514
+ 4E71525
- Vague
- Souhait
+ EXELSI0R
+ Lumière
+ EXELSI0R
+ Buffle
+ Whim
+ Quête
- Scout
- Ranger
- Portrait
+ Motion
+ Falcon
+ Buffle
- 3AH9783
- 3AH9783
- Souhait
- 1S86598
+ Rencontre
+ 1S86599
+ Ranger
+ Vague
+ Portrait
